Data Visualization using ggplot and dplyr
…
In this task, we will load the required package and dataset

into the R workspace. Also, we will explore the dataset

1.1: Load the required packages

library(gapminder)
library(dplyr)
library(ggplot2)

1.2: Look at the gapminder dataset

gapminder

## # A tibble: 1,704 x 6
##    country     continent  year lifeExp      pop gdpPercap
##    <fct>       <fct>     <int>   <dbl>    <int>     <dbl>
##  1 Afghanistan Asia       1952    28.8  8425333      779.
##  2 Afghanistan Asia       1957    30.3  9240934      821.
##  3 Afghanistan Asia       1962    32.0 10267083      853.
##  4 Afghanistan Asia       1967    34.0 11537966      836.
##  5 Afghanistan Asia       1972    36.1 13079460      740.
##  6 Afghanistan Asia       1977    38.4 14880372      786.
##  7 Afghanistan Asia       1982    39.9 12881816      978.
##  8 Afghanistan Asia       1987    40.8 13867957      852.
##  9 Afghanistan Asia       1992    41.7 16317921      649.
## 10 Afghanistan Asia       1997    41.8 22227415      635.
## # ... with 1,694 more rows

1.3: Create a subset of gapminder data set.

Create gapminder_1957

gapminder_1957 <- gapminder %>%
    filter(year == 1957)
print(gapminder_1957)

## # A tibble: 142 x 6
##    country     continent  year lifeExp      pop gdpPercap
##    <fct>       <fct>     <int>   <dbl>    <int>     <dbl>
##  1 Afghanistan Asia       1957    30.3  9240934      821.
##  2 Albania     Europe     1957    59.3  1476505     1942.
##  3 Algeria     Africa     1957    45.7 10270856     3014.
##  4 Angola      Africa     1957    32.0  4561361     3828.
##  5 Argentina   Americas   1957    64.4 19610538     6857.
##  6 Australia   Oceania    1957    70.3  9712569    10950.
##  7 Austria     Europe     1957    67.5  6965860     8843.
##  8 Bahrain     Asia       1957    53.8   138655    11636.
##  9 Bangladesh  Asia       1957    39.3 51365468      662.
## 10 Belgium     Europe     1957    69.2  8989111     9715.
## # ... with 132 more rows
…
5.3: Summarize medianGdpPercap within each continent within each year:

by_year_continent

by_year_continent <- gapminder %>%
  group_by(year, continent) %>%
  summarise(medianGdpPercap = median(gdpPercap))

## `summarise()` has grouped output by 'year'. You can override using the
## `.groups` argument.

print(by_year_continent)

## # A tibble: 60 x 3
## # Groups:   year [12]
##     year continent medianGdpPercap
##    <int> <fct>               <dbl>
##  1  1952 Africa               987.
##  2  1952 Americas            3048.
##  3  1952 Asia                1207.
##  4  1952 Europe              5142.
##  5  1952 Oceania            10298.
##  6  1957 Africa              1024.
##  7  1957 Americas            3781.
##  8  1957 Asia                1548.
##  9  1957 Europe              6067.
## 10  1957 Oceania            11599.
## # ... with 50 more rows
…
6.3: Summarize the median gdpPercap by year & continent,

save as by_year_continent

by_year_continent <- gapminder %>%
  group_by(year, continent) %>%
  summarize(medianGdpPercap = median(gdpPercap))

## `summarise()` has grouped output by 'year'. You can override using the
## `.groups` argument.

print(by_year_continent)

## # A tibble: 60 x 3
## # Groups:   year [12]
##     year continent medianGdpPercap
##    <int> <fct>               <dbl>
##  1  1952 Africa               987.
##  2  1952 Americas            3048.
##  3  1952 Asia                1207.
##  4  1952 Europe              5142.
##  5  1952 Oceania            10298.
##  6  1957 Africa              1024.
##  7  1957 Americas            3781.
##  8  1957 Asia                1548.
##  9  1957 Europe              6067.
## 10  1957 Oceania            11599.
## # ... with 50 more rows
…
In this task, we will visualise summarized data

using histograms

8.1: Filter the dataset for the year 1957. Create a new column called

pop_by_mil. Save this in a new variable called gapminder_1957

gapminder_1957 <- gapminder %>%
  filter(year == 1957) %>%
  mutate(pop_by_mil = pop/1000000)
print(gapminder_1957)

## # A tibble: 142 x 7
##    country     continent  year lifeExp      pop gdpPercap pop_by_mil
##    <fct>       <fct>     <int>   <dbl>    <int>     <dbl>      <dbl>
##  1 Afghanistan Asia       1957    30.3  9240934      821.      9.24 
##  2 Albania     Europe     1957    59.3  1476505     1942.      1.48 
##  3 Algeria     Africa     1957    45.7 10270856     3014.     10.3  
##  4 Angola      Africa     1957    32.0  4561361     3828.      4.56 
##  5 Argentina   Americas   1957    64.4 19610538     6857.     19.6  
##  6 Australia   Oceania    1957    70.3  9712569    10950.      9.71 
##  7 Austria     Europe     1957    67.5  6965860     8843.      6.97 
##  8 Bahrain     Asia       1957    53.8   138655    11636.      0.139
##  9 Bangladesh  Asia       1957    39.3 51365468      662.     51.4  
## 10 Belgium     Europe     1957    69.2  8989111     9715.      8.99 
## # ... with 132 more rows
…
8.3: Recreate the gapminder_1957 and filter for the year 1957 only

gapminder_1957 <- gapminder %>%
  filter(year == 1957)
print(gapminder_1957)

## # A tibble: 142 x 6
##    country     continent  year lifeExp      pop gdpPercap
##    <fct>       <fct>     <int>   <dbl>    <int>     <dbl>
##  1 Afghanistan Asia       1957    30.3  9240934      821.
##  2 Albania     Europe     1957    59.3  1476505     1942.
##  3 Algeria     Africa     1957    45.7 10270856     3014.
##  4 Angola      Africa     1957    32.0  4561361     3828.
##  5 Argentina   Americas   1957    64.4 19610538     6857.
##  6 Australia   Oceania    1957    70.3  9712569    10950.
##  7 Austria     Europe     1957    67.5  6965860     8843.
##  8 Bahrain     Asia       1957    53.8   138655    11636.
##  9 Bangladesh  Asia       1957    39.3 51365468      662.
## 10 Belgium     Europe     1957    69.2  8989111     9715.
## # ... with 132 more rows
…
Task Nine: Visualizing summarized data: Boxplots

In this task, we will visualise summarized data

using boxplots

9.1: Create the gapminder_1957 and filter for the year 1957 only

gapminder_1957 <- gapminder %>%
  filter(year == 1957)
print(gapminder_1957)

## # A tibble: 142 x 6
##    country     continent  year lifeExp      pop gdpPercap
##    <fct>       <fct>     <int>   <dbl>    <int>     <dbl>
##  1 Afghanistan Asia       1957    30.3  9240934      821.
##  2 Albania     Europe     1957    59.3  1476505     1942.
##  3 Algeria     Africa     1957    45.7 10270856     3014.
##  4 Angola      Africa     1957    32.0  4561361     3828.
##  5 Argentina   Americas   1957    64.4 19610538     6857.
##  6 Australia   Oceania    1957    70.3  9712569    10950.
##  7 Austria     Europe     1957    67.5  6965860     8843.
##  8 Bahrain     Asia       1957    53.8   138655    11636.
##  9 Bangladesh  Asia       1957    39.3 51365468      662.
## 10 Belgium     Europe     1957    69.2  8989111     9715.
## # ... with 132 more rows
…
